…
```r
paper %>% group_by(uniqueID) %>% mutate(num_pub = n())
```

```
## # A tibble: 2,535 × 14
## # Groups:   uniqueID [10]
##    ut_char uniqueID addr  item_type pub_year  type startyear endyear wos   auseq
##      <dbl> <chr>    <chr> <chr>        <dbl> <dbl>     <dbl>   <dbl> <chr> <dbl>
##  1 2.08e11 1_91     natl… Meeting …     2009     2      2006    2010 natl…     5
##  2 2.08e11 1_91     natl… Meeting …     2009     1      2006    2010 natl…     1
##  3 2.08e11 1_449    univ… Meeting …     2010     1      2006    2009 univ…     2
##  4 2.08e11 1_449    univ… Meeting …     2010     1      2006    2009 univ…     4
##  5 2.09e11 1_449    univ… Meeting …     2012     1      2006    2009 univ…     7
##  6 2.09e11 1_449    univ… Meeting …     2012     1      2006    2009 univ…     3
##  7 2.52e11 1_91     natl… Article       2008     1      2006    2010 natl…     1
##  8 2.53e11 0_51     univ… Article       2008     1      2006    2015 univ…     2
##  9 2.53e11 1_91     peki… Article       2008     1      2006    2006 peki…     3
## 10 2.53e11 1_91     peki… Article       2008     1      2006    2006 peki…     3
## # ℹ 2,525 more rows
## # ℹ 4 more variables: fullname <chr>, surname <chr>, givenname <chr>,
## #   num_pub <int>
```
…
```r
paper %>% 
  group_by(uniqueID,pub_year,item_type) %>% 
  summarise(num_pub = n())
```

```
## `summarise()` has grouped output by 'uniqueID', 'pub_year'. You can override
## using the `.groups` argument.
```

```
## # A tibble: 205 × 4
## # Groups:   uniqueID, pub_year [140]
##    uniqueID pub_year item_type        num_pub
##    <chr>       <dbl> <chr>              <int>
##  1 0_117        2006 Article                6
##  2 0_117        2006 Meeting Abstract       2
##  3 0_117        2007 Article                8
##  4 0_117        2008 Article                4
##  5 0_117        2008 Review                 4
##  6 0_117        2009 Article                8
##  7 0_117        2010 Article                4
##  8 0_117        2010 Review                 4
##  9 0_117        2011 Article                4
## 10 0_117        2012 Article               18
## # ℹ 195 more rows
```
…
科学家的cv的长数据转变为宽数据

## 其他定制操作

### 排序
`arrange`函数用于变量的顺序排列，联合`desc`可用于逆序排列。


```r
paper %>% arrange(uniqueID, desc(pub_year))
```

```
## # A tibble: 2,535 × 13
##    ut_char uniqueID addr  item_type pub_year  type startyear endyear wos   auseq
##      <dbl> <chr>    <chr> <chr>        <dbl> <dbl>     <dbl>   <dbl> <chr> <dbl>
##  1 5.05e11 0_117    univ… Article       2020     1      2004    2021 univ…     6
##  2 5.05e11 0_117    univ… Article       2020     1      2004    2021 univ…     6
##  3 5.05e11 0_117    univ… Article       2020     1      2004    2021 univ…     6
##  4 5.05e11 0_117    univ… Article       2020     1      2004    2021 univ…     6
##  5 5.05e11 0_117    univ… Article       2020     1      2004    2021 univ…     6
##  6 5.05e11 0_117    univ… Article       2020     1      2004    2021 univ…     6
##  7 5.05e11 0_117    univ… Article       2020     1      2004    2021 univ…     6
##  8 5.05e11 0_117    univ… Article       2020     1      2004    2021 univ…     6
##  9 5.24e11 0_117    univ… Article       2020     1      2004    2021 univ…    10
## 10 5.24e11 0_117    univ… Article       2020     1      2004    2021 univ…    10
## # ℹ 2,525 more rows
## # ℹ 3 more variables: fullname <chr>, surname <chr>, givenname <chr>
```

### 抽样
`sample_n`函数可以从数据框中随机无放回抽样


```r
paper %>% sample(10)
```

```
## # A tibble: 2,535 × 10
##      ut_char startyear givenname surname item_type addr  wos   fullname pub_year
##        <dbl>     <dbl> <chr>     <chr>   <chr>     <chr> <chr> <chr>       <dbl>
##  1   2.08e11      2006 C         JIN     Meeting … natl… natl… jinc         2009
##  2   2.08e11      2006 CHUANHONG JIN     Meeting … natl… natl… jinchua…     2009
##  3   2.08e11      2006 JUN       ZHANG   Meeting … univ… univ… zhangjun     2010
##  4   2.08e11      2006 JUN       ZHANG   Meeting … univ… univ… zhangjun     2010
##  5   2.09e11      2006 JUN       ZHANG   Meeting … univ… univ… zhangjun     2012
##  6   2.09e11      2006 JUN       ZHANG   Meeting … univ… univ… zhangjun     2012
##  7   2.52e11      2006 CHUANHONG JIN     Article   natl… natl… jinchua…     2008
##  8   2.53e11      2006 JIWEI     LU      Article   univ… univ… lujiwei      2008
##  9   2.53e11      2006 CHUANHONG JIN     Article   peki… peki… jinchua…     2008
## 10   2.53e11      2006 CHUANHONG JIN     Article   peki… peki… jinchua…     2008
## # ℹ 2,525 more rows
## # ℹ 1 more variable: type <dbl>
```
…
### 缺失值处理

`drop_na`函数用于删除指定变量有缺失值的行。


```r
paper %>% drop_na(wos)
```

```
## # A tibble: 2,535 × 13
##    ut_char uniqueID addr  item_type pub_year  type startyear endyear wos   auseq
##      <dbl> <chr>    <chr> <chr>        <dbl> <dbl>     <dbl>   <dbl> <chr> <dbl>
##  1 2.08e11 1_91     natl… Meeting …     2009     2      2006    2010 natl…     5
##  2 2.08e11 1_91     natl… Meeting …     2009     1      2006    2010 natl…     1
##  3 2.08e11 1_449    univ… Meeting …     2010     1      2006    2009 univ…     2
##  4 2.08e11 1_449    univ… Meeting …     2010     1      2006    2009 univ…     4
##  5 2.09e11 1_449    univ… Meeting …     2012     1      2006    2009 univ…     7
##  6 2.09e11 1_449    univ… Meeting …     2012     1      2006    2009 univ…     3
##  7 2.52e11 1_91     natl… Article       2008     1      2006    2010 natl…     1
##  8 2.53e11 0_51     univ… Article       2008     1      2006    2015 univ…     2
##  9 2.53e11 1_91     peki… Article       2008     1      2006    2006 peki…     3
## 10 2.53e11 1_91     peki… Article       2008     1      2006    2006 peki…     3
## # ℹ 2,525 more rows
## # ℹ 3 more variables: fullname <chr>, surname <chr>, givenname <chr>
```
…
